[
  {
    "uuid": "00000000-0000-0000-0000-000000000000",
    "name": "TheXisco96",
    "lives": 3,
    "team": {
      "id": -1,
      "lifeSetting": "SHARE",
      "rewardSetting": "ALL",
      "players": [
        {
          "uuid": "00000000-0000-0000-0000-000000000000",
          "owner": true,
          "bookOpen": false,
          "inTeam": true
        }
      ],
      "reputations": [],
      "questDataList": [],
      "invites": []
    },
    "playedLore": false,
    "receivedBook": false,
    "groupData": {},
    "deaths": {
      "00000000-0000-0000-0000-000000000000": [
        0,
        0,
        0,
        0,
        0,
        0,
        0,
        0,
        0,
        0,
        2,
        0,
        0,
        0,
        0
      ]
    }
  }
]