[
  {
    "input": "oreRedstone",
    "output": "minecraft:redstone:0",
    "qty": 12,
    "outputSecondary": "minecraft:redstone:0",
    "percentChance": 20
  },
  {
    "input": "oreLapis",
    "output": "minecraft:dye:4",
    "qty": 8,
    "outputSecondary": "minecraft:dye:4",
    "percentChance": 20
  },
  {
    "input": "itemBlazeRod",
    "output": "minecraft:blaze_powder:0",
    "qty": 4,
    "outputSecondary": "minecraft:blaze_powder:0",
    "percentChance": 15
  },
  {
    "input": "cobblestone",
    "output": "minecraft:sand:0",
    "qty": 1,
    "outputSecondary": "minecraft:gravel:0",
    "percentChance": 10
  },
  {
    "input": "bone",
    "output": "minecraft:dye:15",
    "qty": 8,
    "outputSecondary": "minecraft:dye:15",
    "percentChance": 10
  },
  {
    "input": "oreQuartz",
    "output": "minecraft:quartz:0",
    "qty": 3,
    "outputSecondary": "minecraft:quartz:0",
    "percentChance": 50
  },
  {
    "input": "minecraft:clay:0",
    "output": "minecraft:clay_ball:0",
    "qty": 4,
    "outputSecondary": "",
    "percentChance": 0
  },
  {
    "input": "oreDiamond",
    "output": "minecraft:diamond:0",
    "qty": 2,
    "outputSecondary": "minecraft:diamond:0",
    "percentChance": 5
  },
  {
    "input": "oreEmerald",
    "output": "minecraft:emerald:0",
    "qty": 2,
    "outputSecondary": "minecraft:emerald:0",
    "percentChance": 5
  },
  {
    "input": "glowstone",
    "output": "minecraft:glowstone_dust:0",
    "qty": 4,
    "outputSecondary": "minecraft:glowstone_dust:0",
    "percentChance": 5
  },
  {
    "input": "oreCoal",
    "output": "minecraft:coal:0",
    "qty": 3,
    "outputSecondary": "minecraft:diamond:0",
    "percentChance": 1
  },
  {
    "input": "minecraft:wool:32767",
    "output": "minecraft:string:0",
    "qty": 4,
    "outputSecondary": "",
    "percentChance": 0
  },
  {
    "input": "blockGlass",
    "output": "minecraft:sand:0",
    "qty": 1,
    "outputSecondary": "",
    "percentChance": 0
  },
  {
    "input": "gravel",
    "output": "minecraft:flint:0",
    "qty": 2,
    "outputSecondary": "minecraft:flint:0",
    "percentChance": 10
  },
  {
    "input": "ingotIron",
    "output": "ic2:dust:8",
    "qty": 1,
    "outputSecondary": "",
    "percentChance": 0
  },
  {
    "input": "ingotGold",
    "output": "ic2:dust:7",
    "qty": 1,
    "outputSecondary": "",
    "percentChance": 0
  },
  {
    "input": "oreCopper",
    "output": "ic2:dust:4",
    "qty": 2,
    "outputSecondary": "",
    "percentChance": 0
  },
  {
    "input": "oreGold",
    "output": "ic2:dust:7",
    "qty": 2,
    "outputSecondary": "",
    "percentChance": 0
  },
  {
    "input": "oreIron",
    "output": "ic2:dust:8",
    "qty": 2,
    "outputSecondary": "",
    "percentChance": 0
  },
  {
    "input": "oreSilver",
    "output": "ic2:dust:14",
    "qty": 2,
    "outputSecondary": "",
    "percentChance": 0
  },
  {
    "input": "oreTin",
    "output": "ic2:dust:17",
    "qty": 2,
    "outputSecondary": "",
    "percentChance": 0
  },
  {
    "input": "oreLead",
    "output": "ic2:dust:10",
    "qty": 2,
    "outputSecondary": "",
    "percentChance": 0
  },
  {
    "input": "oreSulfur",
    "output": "ic2:dust:16",
    "qty": 2,
    "outputSecondary": "",
    "percentChance": 0
  },
  {
    "input": "ingotBronze",
    "output": "ic2:dust:0",
    "qty": 1,
    "outputSecondary": "",
    "percentChance": 0
  },
  {
    "input": "ingotCopper",
    "output": "ic2:dust:4",
    "qty": 1,
    "outputSecondary": "",
    "percentChance": 0
  },
  {
    "input": "ingotSteel",
    "output": "libvulpes:productdust:6",
    "qty": 1,
    "outputSecondary": "",
    "percentChance": 0
  },
  {
    "input": "ingotLead",
    "output": "ic2:dust:10",
    "qty": 1,
    "outputSecondary": "",
    "percentChance": 0
  },
  {
    "input": "ingotTin",
    "output": "ic2:dust:17",
    "qty": 1,
    "outputSecondary": "",
    "percentChance": 0
  },
  {
    "input": "ingotSilver",
    "output": "ic2:dust:14",
    "qty": 1,
    "outputSecondary": "",
    "percentChance": 0
  },
  {
    "input": "ingotUranium",
    "output": "bigreactors:dustMetals:0",
    "qty": 1,
    "outputSecondary": "",
    "percentChance": 0
  },
  {
    "input": "ingotIridium",
    "output": "libvulpes:productdust:10",
    "qty": 1,
    "outputSecondary": "",
    "percentChance": 0
  },
  {
    "input": "oreDilithium",
    "output": "libvulpes:productdust:0",
    "qty": 2,
    "outputSecondary": "",
    "percentChance": 0
  },
  {
    "input": "ingotSilicon",
    "output": "libvulpes:productdust:3",
    "qty": 1,
    "outputSecondary": "",
    "percentChance": 0
  },
  {
    "input": "oreTitanium",
    "output": "libvulpes:productdust:7",
    "qty": 2,
    "outputSecondary": "",
    "percentChance": 0
  },
  {
    "input": "ingotTitanium",
    "output": "libvulpes:productdust:7",
    "qty": 1,
    "outputSecondary": "",
    "percentChance": 0
  },
  {
    "input": "oreAluminum",
    "output": "libvulpes:productdust:9",
    "qty": 2,
    "outputSecondary": "",
    "percentChance": 0
  },
  {
    "input": "ingotAluminum",
    "output": "libvulpes:productdust:9",
    "qty": 1,
    "outputSecondary": "",
    "percentChance": 0
  },
  {
    "input": "oreIridium",
    "output": "libvulpes:productdust:10",
    "qty": 2,
    "outputSecondary": "",
    "percentChance": 0
  },
  {
    "input": "ingotTitaniumAluminide",
    "output": "advancedrocketry:productdust:0",
    "qty": 1,
    "outputSecondary": "",
    "percentChance": 0
  },
  {
    "input": "ingotTitaniumIridium",
    "output": "advancedrocketry:productdust:1",
    "qty": 1,
    "outputSecondary": "",
    "percentChance": 0
  },
  {
    "input": "oreVinteum",
    "output": "arsmagica2:item_ore:0",
    "qty": 2,
    "outputSecondary": "",
    "percentChance": 0
  },
  {
    "input": "ingotPsi",
    "output": "psi:material:0",
    "qty": 1,
    "outputSecondary": "",
    "percentChance": 0
  },
  {
    "input": "ingotDraconium",
    "output": "draconicevolution:draconium_dust:0",
    "qty": 1,
    "outputSecondary": "",
    "percentChance": 0
  },
  {
    "input": "oreDraconium",
    "output": "draconicevolution:draconium_dust:0",
    "qty": 2,
    "outputSecondary": "",
    "percentChance": 0
  },
  {
    "input": "oreNickel",
    "output": "substratum:dust:8",
    "qty": 2,
    "outputSecondary": "",
    "percentChance": 0
  },
  {
    "input": "orePlatinum",
    "output": "substratum:dust:14",
    "qty": 2,
    "outputSecondary": "",
    "percentChance": 0
  },
  {
    "input": "ingotNickel",
    "output": "substratum:dust:8",
    "qty": 1,
    "outputSecondary": "",
    "percentChance": 0
  },
  {
    "input": "ingotPlatinum",
    "output": "substratum:dust:14",
    "qty": 1,
    "outputSecondary": "",
    "percentChance": 0
  },
  {
    "input": "ingotEnderium",
    "output": "substratum:dust:19",
    "qty": 1,
    "outputSecondary": "",
    "percentChance": 0
  },
  {
    "input": "oreCertusQuartz",
    "output": "appliedenergistics2:material:2",
    "qty": 2,
    "outputSecondary": "",
    "percentChance": 0
  },
  {
    "input": "oreOsmium",
    "output": "mekanism:Dust:2",
    "qty": 2,
    "outputSecondary": "",
    "percentChance": 0
  },
  {
    "input": "ingotCobalt",
    "output": "enderio:itemPowderIngot:10",
    "qty": 1,
    "outputSecondary": "",
    "percentChance": 0
  },
  {
    "input": "ingotArdite",
    "output": "enderio:itemPowderIngot:9",
    "qty": 1,
    "outputSecondary": "",
    "percentChance": 0
  },
  {
    "input": "oreSaltpeter",
    "output": "railcraft:dust:2",
    "qty": 2,
    "outputSecondary": "",
    "percentChance": 0
  },
  {
    "input": "ingotLapis",
    "output": "ic2:dust:9",
    "qty": 1,
    "outputSecondary": "",
    "percentChance": 0
  },
  {
    "input": "ingotDiamond",
    "output": "ic2:dust:5",
    "qty": 1,
    "outputSecondary": "",
    "percentChance": 0
  },
  {
    "input": "ingotRedstone",
    "output": "minecraft:redstone:0",
    "qty": 1,
    "outputSecondary": "",
    "percentChance": 0
  },
  {
    "input": "ingotEmerald",
    "output": "actuallyadditions:itemDust:3",
    "qty": 1,
    "outputSecondary": "",
    "percentChance": 0
  },
  {
    "input": "ingotQuartz",
    "output": "actuallyadditions:itemDust:5",
    "qty": 1,
    "outputSecondary": "",
    "percentChance": 0
  },
  {
    "input": "ingotCoal",
    "output": "ic2:dust:2",
    "qty": 1,
    "outputSecondary": "",
    "percentChance": 0
  },
  {
    "input": "ingotPrismarine",
    "output": "minecraft:prismarine_crystals:0",
    "qty": 1,
    "outputSecondary": "",
    "percentChance": 0
  },
  {
    "input": "ingotGlowstone",
    "output": "minecraft:glowstone_dust:0",
    "qty": 1,
    "outputSecondary": "",
    "percentChance": 0
  },
  {
    "input": "oreUranium",
    "output": "bigreactors:dustMetals:0",
    "qty": 2,
    "outputSecondary": "",
    "percentChance": 0
  },
  {
    "input": "ingotStone",
    "output": "ic2:dust:15",
    "qty": 1,
    "outputSecondary": "",
    "percentChance": 0
  },
  {
    "input": "ingotClay",
    "output": "ic2:dust:1",
    "qty": 1,
    "outputSecondary": "",
    "percentChance": 0
  },
  {
    "input": "ingotObsidian",
    "output": "ic2:dust:12",
    "qty": 1,
    "outputSecondary": "",
    "percentChance": 0
  },
  {
    "input": "ingotSulfur",
    "output": "ic2:dust:16",
    "qty": 1,
    "outputSecondary": "",
    "percentChance": 0
  },
  {
    "input": "ingotLithium",
    "output": "ic2:dust:11",
    "qty": 1,
    "outputSecondary": "",
    "percentChance": 0
  },
  {
    "input": "ingotSiliconDioxide",
    "output": "ic2:dust:13",
    "qty": 1,
    "outputSecondary": "",
    "percentChance": 0
  },
  {
    "input": "ingotHydratedCoal",
    "output": "ic2:dust:3",
    "qty": 1,
    "outputSecondary": "",
    "percentChance": 0
  },
  {
    "input": "ingotAshes",
    "output": "ic2:misc_resource:0",
    "qty": 1,
    "outputSecondary": "",
    "percentChance": 0
  },
  {
    "input": "ingotTinyCopper",
    "output": "ic2:dust:19",
    "qty": 1,
    "outputSecondary": "",
    "percentChance": 0
  },
  {
    "input": "ingotTinyGold",
    "output": "ic2:dust:20",
    "qty": 1,
    "outputSecondary": "",
    "percentChance": 0
  },
  {
    "input": "ingotTinyIron",
    "output": "ic2:dust:21",
    "qty": 1,
    "outputSecondary": "",
    "percentChance": 0
  },
  {
    "input": "ingotTinySilver",
    "output": "ic2:dust:26",
    "qty": 1,
    "outputSecondary": "",
    "percentChance": 0
  },
  {
    "input": "ingotTinyTin",
    "output": "ic2:dust:28",
    "qty": 1,
    "outputSecondary": "",
    "percentChance": 0
  },
  {
    "input": "ingotTinyLead",
    "output": "ic2:dust:23",
    "qty": 1,
    "outputSecondary": "",
    "percentChance": 0
  },
  {
    "input": "ingotTinySulfur",
    "output": "ic2:dust:27",
    "qty": 1,
    "outputSecondary": "",
    "percentChance": 0
  },
  {
    "input": "ingotTinyLithium",
    "output": "ic2:dust:24",
    "qty": 1,
    "outputSecondary": "",
    "percentChance": 0
  },
  {
    "input": "ingotTinyBronze",
    "output": "ic2:dust:18",
    "qty": 1,
    "outputSecondary": "",
    "percentChance": 0
  },
  {
    "input": "ingotTinyLapis",
    "output": "ic2:dust:22",
    "qty": 1,
    "outputSecondary": "",
    "percentChance": 0
  },
  {
    "input": "ingotTinyObsidian",
    "output": "ic2:dust:25",
    "qty": 1,
    "outputSecondary": "",
    "percentChance": 0
  },
  {
    "input": "ingotDilithium",
    "output": "libvulpes:productdust:0",
    "qty": 1,
    "outputSecondary": "",
    "percentChance": 0
  },
  {
    "input": "ingotVinteum",
    "output": "arsmagica2:item_ore:0",
    "qty": 1,
    "outputSecondary": "",
    "percentChance": 0
  },
  {
    "input": "ingotAsh",
    "output": "forestry:ash:0",
    "qty": 1,
    "outputSecondary": "",
    "percentChance": 0
  },
  {
    "input": "ingotWheat",
    "output": "enderio:itemPowderIngot:8",
    "qty": 1,
    "outputSecondary": "",
    "percentChance": 0
  },
  {
    "input": "ingotLunar",
    "output": "extrautils2:Ingredients:3",
    "qty": 1,
    "outputSecondary": "",
    "percentChance": 0
  },
  {
    "input": "oreArdite",
    "output": "enderio:itemPowderIngot:9",
    "qty": 2,
    "outputSecondary": "",
    "percentChance": 0
  },
  {
    "input": "oreCobalt",
    "output": "enderio:itemPowderIngot:10",
    "qty": 2,
    "outputSecondary": "",
    "percentChance": 0
  },
  {
    "input": "ingotCertusQuartz",
    "output": "appliedenergistics2:material:2",
    "qty": 1,
    "outputSecondary": "",
    "percentChance": 0
  },
  {
    "input": "ingotOsmium",
    "output": "mekanism:Dust:2",
    "qty": 1,
    "outputSecondary": "",
    "percentChance": 0
  },
  {
    "input": "ingotSulphur",
    "output": "natura:materials:4",
    "qty": 1,
    "outputSecondary": "",
    "percentChance": 0
  },
  {
    "input": "ingotSalt",
    "output": "harvestcraft:saltItem:0",
    "qty": 1,
    "outputSecondary": "",
    "percentChance": 0
  },
  {
    "input": "ingotSaltpeter",
    "output": "railcraft:dust:2",
    "qty": 1,
    "outputSecondary": "",
    "percentChance": 0
  },
  {
    "input": "ingotCharcoal",
    "output": "railcraft:dust:3",
    "qty": 1,
    "outputSecondary": "",
    "percentChance": 0
  },
  {
    "input": "ingotSlag",
    "output": "railcraft:dust:4",
    "qty": 1,
    "outputSecondary": "",
    "percentChance": 0
  },
  {
    "input": "ingotEnderPearl",
    "output": "appliedenergistics2:material:46",
    "qty": 1,
    "outputSecondary": "",
    "percentChance": 0
  },
  {
    "input": "ingotFluix",
    "output": "appliedenergistics2:material:8",
    "qty": 1,
    "outputSecondary": "",
    "percentChance": 0
  },
  {
    "input": "ingotNetherQuartz",
    "output": "appliedenergistics2:material:3",
    "qty": 1,
    "outputSecondary": "",
    "percentChance": 0
  },
  {
    "input": "ingotElectrum",
    "output": "substratum:dust:6",
    "qty": 1,
    "outputSecondary": "",
    "percentChance": 0
  },
  {
    "input": "ingotInvar",
    "output": "substratum:dust:7",
    "qty": 1,
    "outputSecondary": "",
    "percentChance": 0
  },
  {
    "input": "ingotZinc",
    "output": "substratum:dust:9",
    "qty": 1,
    "outputSecondary": "",
    "percentChance": 0
  },
  {
    "input": "ingotBrass",
    "output": "substratum:dust:10",
    "qty": 1,
    "outputSecondary": "",
    "percentChance": 0
  },
  {
    "input": "ingotCupronickel",
    "output": "substratum:dust:15",
    "qty": 1,
    "outputSecondary": "",
    "percentChance": 0
  },
  {
    "input": "ingotConstantan",
    "output": "substratum:dust:15",
    "qty": 1,
    "outputSecondary": "",
    "percentChance": 0
  },
  {
    "input": "ingotSignalum",
    "output": "substratum:dust:17",
    "qty": 1,
    "outputSecondary": "",
    "percentChance": 0
  },
  {
    "input": "ingotLumium",
    "output": "substratum:dust:18",
    "qty": 1,
    "outputSecondary": "",
    "percentChance": 0
  },
  {
    "input": "ingotAlumina",
    "output": "substratum:dust:24",
    "qty": 1,
    "outputSecondary": "",
    "percentChance": 0
  },
  {
    "input": "ingotAluminium",
    "output": "substratum:dust:25",
    "qty": 1,
    "outputSecondary": "",
    "percentChance": 0
  },
  {
    "input": "ingotChrome",
    "output": "substratum:dust:26",
    "qty": 1,
    "outputSecondary": "",
    "percentChance": 0
  },
  {
    "input": "ingotChromium",
    "output": "substratum:dust:26",
    "qty": 1,
    "outputSecondary": "",
    "percentChance": 0
  },
  {
    "input": "oreZinc",
    "output": "substratum:dust:9",
    "qty": 2,
    "outputSecondary": "",
    "percentChance": 0
  },
  {
    "input": "oreNiter",
    "output": "substratum:dust:23",
    "qty": 2,
    "outputSecondary": "",
    "percentChance": 0
  },
  {
    "input": "oreAlumina",
    "output": "substratum:dust:24",
    "qty": 2,
    "outputSecondary": "",
    "percentChance": 0
  },
  {
    "input": "oreChrome",
    "output": "substratum:dust:26",
    "qty": 2,
    "outputSecondary": "",
    "percentChance": 0
  },
  {
    "input": "oreChromium",
    "output": "substratum:dust:26",
    "qty": 2,
    "outputSecondary": "",
    "percentChance": 0
  },
  {
    "input": "oreQuartzBlack",
    "output": "actuallyadditions:itemDust:7",
    "qty": 2,
    "outputSecondary": "",
    "percentChance": 0
  },
  {
    "input": "ingotYellorium",
    "output": "bigreactors:dustMetals:0",
    "qty": 1,
    "outputSecondary": "",
    "percentChance": 0
  },
  {
    "input": "ingotCyanite",
    "output": "bigreactors:dustMetals:1",
    "qty": 1,
    "outputSecondary": "",
    "percentChance": 0
  },
  {
    "input": "ingotGraphite",
    "output": "bigreactors:dustMetals:2",
    "qty": 1,
    "outputSecondary": "",
    "percentChance": 0
  },
  {
    "input": "ingotBlutonium",
    "output": "bigreactors:dustMetals:3",
    "qty": 1,
    "outputSecondary": "",
    "percentChance": 0
  },
  {
    "input": "ingotLudicrite",
    "output": "bigreactors:dustMetals:4",
    "qty": 1,
    "outputSecondary": "",
    "percentChance": 0
  },
  {
    "input": "ingotPlutonium",
    "output": "bigreactors:dustMetals:3",
    "qty": 1,
    "outputSecondary": "",
    "percentChance": 0
  },
  {
    "input": "oreYellorium",
    "output": "bigreactors:dustMetals:0",
    "qty": 2,
    "outputSecondary": "",
    "percentChance": 0
  },
  {
    "input": "ingotRefinedObsidian",
    "output": "mekanism:OtherDust:5",
    "qty": 1,
    "outputSecondary": "",
    "percentChance": 0
  },
  {
    "input": "minecraft:yellow_flower:0",
    "output": "minecraft:dye:11",
    "qty": 3,
    "outputSecondary": "",
    "percentChance": 0
  }
]